<?xml version="1.0" encoding="UTF-8" standalone="no"?>
<!-- Created with Inkscape (http://www.inkscape.org/) -->

<svg
   xmlns:dc="http://purl.org/dc/elements/1.1/"
   xmlns:cc="http://creativecommons.org/ns#"
   xmlns:rdf="http://www.w3.org/1999/02/22-rdf-syntax-ns#"
   xmlns:svg="http://www.w3.org/2000/svg"
   xmlns="http://www.w3.org/2000/svg"
   xmlns:sodipodi="http://sodipodi.sourceforge.net/DTD/sodipodi-0.dtd"
   xmlns:inkscape="http://www.inkscape.org/namespaces/inkscape"
   width="150"
   height="150"
   viewBox="0 0 39.6875 39.687501"
   version="1.1"
   id="svg8"
   inkscape:version="0.92.3 (2405546, 2018-03-11)"
   sodipodi:docname="tom-logo.svg">
  <defs
     id="defs2" />
  <sodipodi:namedview
     id="base"
     pagecolor="#ffffff"
     bordercolor="#666666"
     borderopacity="1.0"
     inkscape:pageopacity="0.0"
     inkscape:pageshadow="2"
     inkscape:zoom="1.9021165"
     inkscape:cx="353.73021"
     inkscape:cy="-52.838553"
     inkscape:document-units="px"
     inkscape:current-layer="g8651"
     showgrid="false"
     inkscape:window-width="3000"
     inkscape:window-height="1908"
     inkscape:window-x="-12"
     inkscape:window-y="-12"
     inkscape:window-maximized="1"
     units="px"
     showguides="false" />
  <metadata
     id="metadata5">
    <rdf:RDF>
      <cc:Work
         rdf:about="">
        <dc:format>image/svg+xml</dc:format>
        <dc:type
           rdf:resource="http://purl.org/dc/dcmitype/StillImage" />
        <dc:title />
      </cc:Work>
    </rdf:RDF>
  </metadata>
  <g
     inkscape:label="Layer 1"
     inkscape:groupmode="layer"
     id="layer1"
     transform="translate(0,-257.31249)">
    <g
       id="g8670"
       transform="rotate(180,19.843752,277.15627)">
      <g
         id="g8660">
        <g
           id="g8651">
          <text
             transform="scale(1.1250985,0.88881106)"
             id="text8635"
             y="334.15433"
             x="-1.3348937"
             style="font-style:normal;font-variant:normal;font-weight:normal;font-stretch:normal;font-size:68.34679413px;line-height:1.25;font-family:Corbel;-inkscape-font-specification:'Corbel, Normal';font-variant-ligatures:normal;font-variant-caps:normal;font-variant-numeric:normal;font-feature-settings:normal;text-align:start;letter-spacing:0px;word-spacing:0px;writing-mode:lr-tb;text-anchor:start;fill:#ffffff;fill-opacity:1;stroke:none;stroke-width:1.70862818;"
             xml:space="preserve"><tspan
               style="font-style:normal;font-variant:normal;font-weight:normal;font-stretch:normal;font-size:68.34679413px;font-family:Corbel;-inkscape-font-specification:'Corbel, Normal';font-variant-ligatures:normal;font-variant-caps:normal;font-variant-numeric:normal;font-feature-settings:normal;text-align:start;writing-mode:lr-tb;text-anchor:start;fill:#ffffff;stroke-width:1.70862818;"
               y="334.15433"
               x="-1.3348937"
               id="tspan8633"
               sodipodi:role="line">T</tspan></text>
          <text
             transform="scale(1.0512352,0.9512619)"
             id="text8639"
             y="311.46545"
             x="-3.6069872"
             style="font-style:normal;font-variant:normal;font-weight:normal;font-stretch:normal;font-size:61.55936432px;line-height:1.25;font-family:Corbel;-inkscape-font-specification:'Corbel, Normal';font-variant-ligatures:normal;font-variant-caps:normal;font-variant-numeric:normal;font-feature-settings:normal;text-align:start;letter-spacing:0px;word-spacing:0px;writing-mode:lr-tb;text-anchor:start;fill:#ffffff;fill-opacity:1;stroke:none;stroke-width:1.53901672;"
             xml:space="preserve"><tspan
               style="font-style:normal;font-variant:normal;font-weight:normal;font-stretch:normal;font-size:61.55936432px;font-family:Corbel;-inkscape-font-specification:'Corbel, Normal';font-variant-ligatures:normal;font-variant-caps:normal;font-variant-numeric:normal;font-feature-settings:normal;text-align:start;writing-mode:lr-tb;text-anchor:start;fill:#ffffff;stroke-width:1.53901672;"
               y="311.46545"
               x="-3.6069872"
               id="tspan8637"
               sodipodi:role="line">O</tspan></text>
          <text
             transform="scale(0.99813677,1.0018667)"
             id="text8643"
             y="296.44669"
             x="-5.0331082"
             style="font-style:normal;font-variant:normal;font-weight:normal;font-stretch:normal;font-size:60.63419724px;line-height:1.25;font-family:Corbel;-inkscape-font-specification:'Corbel, Normal';font-variant-ligatures:normal;font-variant-caps:normal;font-variant-numeric:normal;font-feature-settings:normal;text-align:start;letter-spacing:0px;word-spacing:0px;writing-mode:lr-tb;text-anchor:start;fill:#ffffff;fill-opacity:1;stroke:none;stroke-width:1.51585126;"
             xml:space="preserve"><tspan
               style="font-style:normal;font-variant:normal;font-weight:normal;font-stretch:normal;font-size:60.63419724px;font-family:Corbel;-inkscape-font-specification:'Corbel, Normal';font-variant-ligatures:normal;font-variant-caps:normal;font-variant-numeric:normal;font-feature-settings:normal;text-align:start;writing-mode:lr-tb;text-anchor:start;fill:#ffffff;stroke-width:1.51585126;"
               y="296.44669"
               x="-5.0331082"
               id="tspan8641"
               sodipodi:role="line">M</tspan></text>
          <path
             style="fill:#ffffff;fill-opacity:0;stroke-width:0.09835816"
             d="m 39.687504,277.13171 v 19.81917 h -2.899817 -2.899818 l -0.02634,-2.37403 -0.02634,-2.37404 -0.590149,0.49308 c -2.489472,2.08002 -6.112175,3.57659 -9.712866,4.01248 -0.311058,0.0376 -0.56556,0.10763 -0.56556,0.15549 0,0.11794 -6.070205,0.11355 -6.143131,-0.004 -0.03109,-0.0503 -0.310337,-0.12109 -0.620542,-0.15729 -0.683948,-0.0798 -2.191409,-0.39084 -3.098536,-0.6393 -2.427764,-0.66497 -5.040109,-2.02713 -6.858677,-3.57632 l -0.639329,-0.54463 -0.02625,2.50451 -0.02625,2.5045 H 2.801537 0.049169 v -19.81962 -19.81916 h 19.819165 19.81917 z m -16.716949,-9.27025 c 0.0033,5.01519 0.02422,5.88828 0.135909,5.68018 0.07258,-0.13524 1.222737,-2.3424 2.555897,-4.90479 1.689689,-3.24766 2.394672,-4.69414 2.32735,-4.77526 -0.129256,-0.15574 -1.690888,-0.97306 -2.367424,-1.23905 -0.65852,-0.25891 -2.130523,-0.67006 -2.434365,-0.67995 l -0.221306,-0.007 0.0039,5.92608 z m -7.872591,-5.56659 c -0.828371,0.23578 -2.790265,1.13913 -3.226425,1.48561 l -0.226502,0.17993 2.512405,4.66736 c 1.381822,2.56705 2.557081,4.68225 2.611687,4.70045 0.115116,0.0384 0.143606,-11.21737 0.02868,-11.33229 -0.09411,-0.0941 -0.682296,0.009 -1.699848,0.29894 z m 12.007827,12.96804 -4.137948,7.77029 -5.82e-4,4.68687 -5.82e-4,4.68687 0.819031,-0.17898 c 3.522123,-0.76968 6.592581,-3.13648 8.261845,-6.36849 1.58125,-3.06159 2.173489,-7.59167 1.581669,-12.09831 -0.254207,-1.93577 -0.744035,-3.58229 -1.54223,-5.18409 -0.496338,-0.99605 -0.671623,-1.26189 -0.76699,-1.16327 -0.04197,0.0434 -1.938341,3.57545 -4.214213,7.84911 z M 7.526427,268.8485 c -1.093751,2.35423 -1.57343,4.88567 -1.574967,8.31168 -7.94e-4,1.97327 0.104079,3.19287 0.403873,4.69273 0.981848,4.91213 3.947721,8.47397 8.3055,9.97441 1.278235,0.44011 2.108664,0.61662 2.168417,0.46091 0.02606,-0.0679 0.03447,-1.97891 0.01869,-4.24664 l -0.0287,-4.12316 -4.217546,-7.96701 c -2.319653,-4.38186 -4.259948,-8.04879 -4.311772,-8.14875 -0.08984,-0.17327 -0.101063,-0.17196 -0.241163,0.0281 -0.08082,0.11538 -0.315864,0.57338 -0.522324,1.01777 z"
             id="path8672"
             inkscape:connector-curvature="0" />
          <path
             style="fill:#c87137;fill-opacity:0;stroke-width:0.09835816"
             d="m 11.852145,291.59036 v 19.81917 H 8.9523276 6.0525104 l -0.026339,-2.35738 -0.026339,-2.35738 -0.6885072,0.55412 c -2.1700488,1.74649 -4.85368958,2.99131 -7.7702923,3.60429 -0.6491639,0.13643 -1.4569303,0.27888 -1.7950365,0.31655 -0.3381061,0.0377 -0.6147385,0.10704 -0.6147385,0.15415 0,0.0471 -1.394227,0.0857 -3.0982821,0.0857 -1.704055,0 -3.0982818,-0.0351 -3.0982818,-0.0779 0,-0.0429 -0.49226,-0.15567 -1.09391,-0.2507 -3.665125,-0.57886 -6.772863,-1.93164 -9.356644,-4.0729 l -0.762275,-0.63172 v 2.51662 2.51662 h -2.754029 -2.75403 V 291.59036 271.7712 H -7.9670248 11.852145 Z m -16.7161567,-9.27025 0.00473,5.92608 0.2835548,-0.54902 c 0.1559557,-0.30196 1.3059447,-2.51382 2.5555319,-4.91526 l 2.27197709,-4.36624 -0.2242566,-0.17328 c -0.31075763,-0.24011 -1.58900049,-0.90307 -2.24059889,-1.16209 -0.5754658,-0.22875 -2.1958322,-0.67335 -2.4835435,-0.68144 -0.1621296,-0.005 -0.1718525,0.33934 -0.1673958,5.92125 z m -7.3977473,-5.68629 c -1.107119,0.28766 -2.320997,0.78729 -3.24184,1.33435 -0.371983,0.221 -0.676333,0.41394 -0.676333,0.42877 0,0.046 5.009895,9.33469 5.063777,9.38857 0.02797,0.028 0.05085,-2.52367 0.05085,-5.67031 0,-4.81972 -0.02155,-5.72117 -0.136769,-5.72117 -0.07522,0 -0.55208,0.10791 -1.059683,0.23979 z m 11.53385666,13.09982 -4.14084036,7.78238 v 4.67479 4.67478 l 0.6639176,-0.14764 c 3.1854255,-0.70838 5.9200941,-2.54246 7.6376212,-5.12238 1.1008575,-1.65362 1.6831858,-3.11539 2.1967947,-5.51444 0.2578659,-1.20449 0.2666148,-1.34724 0.2692064,-4.39241 0.00246,-2.88075 -0.016452,-3.24748 -0.2230945,-4.32776 -0.2745526,-1.4353 -0.8450636,-3.18056 -1.4014252,-4.28711 -0.5210421,-1.0363 -0.6942985,-1.30065 -0.7874003,-1.2014 -0.040667,0.0433 -1.9373171,3.58089 -4.21477954,7.86119 z M -20.595021,283.9699 c -0.873162,2.20962 -1.197509,4.01511 -1.262959,7.03032 -0.05648,2.6019 0.09249,4.21738 0.559318,6.06547 0.671301,2.65757 1.712929,4.56267 3.437687,6.28743 1.703797,1.7038 3.758966,2.82603 6.18093,3.37512 l 0.614738,0.13937 v -4.27171 -4.27172 l -4.29453,-8.12133 -4.294535,-8.12133 -0.321066,0.56648 c -0.176588,0.31156 -0.455398,0.90642 -0.619583,1.3219 z"
             id="path8683"
             inkscape:connector-curvature="0" />
          <flowRoot
             xml:space="preserve"
             id="flowRoot34"
             style="fill:black;fill-opacity:1;stroke:none;font-family:sans-serif;font-style:normal;font-weight:normal;font-size:40px;line-height:1.25;letter-spacing:0px;word-spacing:0px"><flowRegion
               id="flowRegion36"><rect
                 id="rect38"
                 width="108.03755"
                 height="111.71766"
                 x="-34.829624"
                 y="-6.1418586" /></flowRegion><flowPara
               id="flowPara40"></flowPara></flowRoot>          <flowRoot
             xml:space="preserve"
             id="flowRoot42"
             style="fill:black;fill-opacity:1;stroke:none;font-family:sans-serif;font-style:normal;font-weight:normal;font-size:40px;line-height:1.25;letter-spacing:0px;word-spacing:0px"><flowRegion
               id="flowRegion44"><rect
                 id="rect46"
                 width="74.785118"
                 height="101.46592"
                 x="10.777469"
                 y="-19.416546" /></flowRegion><flowPara
               id="flowPara48"></flowPara></flowRoot>        </g>
      </g>
    </g>
  </g>
</svg>
